<svg xmlns="http://www.w3.org/2000/svg" viewBox="0 0 340.5 340.5">
  <defs>
    <style>
      .cls-1 {
        fill: #999;
      }

      .cls-2 {
        fill: gray;
      }

      .cls-3 {
        fill: #4d4d4d;
      }
    </style>
  </defs>
  <title>Asset 20</title>
  <g id="Layer_2" data-name="Layer 2">
    <g id="Layer_1-2" data-name="Layer 1">
      <rect width="340.5" height="340.5" rx="51.37"/>
      <g>
        <rect class="cls-1" x="21.9" y="80.88" width="259.7" height="40.62" rx="20.31"/>
        <rect class="cls-2" x="123.78" y="150.59" width="132.27" height="41.11" rx="20.56"/>
        <rect class="cls-3" x="218.51" y="218.51" width="100.09" height="41.11" rx="20.56"/>
      </g>
    </g>
  </g>
</svg>
